\relax 
\providecommand\babel@aux[2]{}
\@nameuse{bbl@beforestart}
\catcode `"\active 
\abx@aux@refcontext{nyt/global//global/global}
\babel@aux{russian}{}
\abx@aux@cite{0}{cppcheck}
\abx@aux@segm{0}{0}{cppcheck}
\abx@aux@cite{0}{clang}
\abx@aux@segm{0}{0}{clang}
\abx@aux@cite{0}{static-analysis-wiki}
\abx@aux@segm{0}{0}{static-analysis-wiki}
\abx@aux@cite{0}{infer}
\abx@aux@segm{0}{0}{infer}
\abx@aux@cite{0}{infersharp}
\abx@aux@segm{0}{0}{infersharp}
\abx@aux@cite{0}{microsoft-wikipedia}
\abx@aux@segm{0}{0}{microsoft-wikipedia}
\abx@aux@cite{0}{llvm}
\abx@aux@segm{0}{0}{llvm}
\newlabel{chapter:introduction}{{}{6}}
\@writefile{toc}{\contentsline {chapter}{ВВЕДЕНИЕ}{6}{}\protected@file@percent }
\abx@aux@cite{0}{infer-sil}
\abx@aux@segm{0}{0}{infer-sil}
\abx@aux@cite{0}{ocaml}
\abx@aux@segm{0}{0}{ocaml}
\abx@aux@cite{0}{jetbrains-infer-integration}
\abx@aux@segm{0}{0}{jetbrains-infer-integration}
\abx@aux@cite{0}{ide-infer-integration}
\abx@aux@segm{0}{0}{ide-infer-integration}
\@writefile{toc}{\contentsline {chapter}{\numberline {1}Обзор задачи и области}{9}{}\protected@file@percent }
\@writefile{lof}{\addvspace {10\p@ }}
\@writefile{lot}{\addvspace {10\p@ }}
\@writefile{toc}{\contentsline {section}{\numberline {1.1}Постановка задачи}{9}{}\protected@file@percent }
\@writefile{toc}{\contentsline {section}{\numberline {1.2}Infer}{9}{}\protected@file@percent }
\abx@aux@cite{0}{infer-github}
\abx@aux@segm{0}{0}{infer-github}
\abx@aux@cite{0}{infer-getting-started}
\abx@aux@segm{0}{0}{infer-getting-started}
\providecommand*\caption@xref[2]{\@setref\relax\@undefined{#1}}
\newlabel{example-java-for-infer}{{1}{11}}
\@writefile{lol}{\contentsline {lstlisting}{\numberline {1}Пример исходного кода на Java}{11}{}\protected@file@percent }
\@writefile{loa}{\contentsline {algorithm}{\numberline {2}{\ignorespaces Команда для запуска анализа примера\relax }}{11}{}\protected@file@percent }
\newlabel{example-java-for-infer-command}{{2}{11}}
\newlabel{example-java-for-infer-output}{{3}{11}}
\@writefile{lol}{\contentsline {lstlisting}{\numberline {3}Пример вывода команды Infer}{11}{}\protected@file@percent }
\@writefile{toc}{\contentsline {section}{\numberline {1.3}LLVM IR}{11}{}\protected@file@percent }
\@writefile{toc}{\contentsline {subsection}{\numberline {1.3.1}Базовая информация}{11}{}\protected@file@percent }
\abx@aux@cite{0}{risc}
\abx@aux@segm{0}{0}{risc}
\abx@aux@cite{0}{ssa-wikipedia}
\abx@aux@segm{0}{0}{ssa-wikipedia}
\abx@aux@cite{0}{ssa-cs-cmu}
\abx@aux@segm{0}{0}{ssa-cs-cmu}
\newlabel{example-c-file-for-explain-llvm}{{4}{12}}
\@writefile{lol}{\contentsline {lstlisting}{\numberline {4}Код для эксперимента над LLVM}{12}{}\protected@file@percent }
\newlabel{command-for-llvm-for-explain-llvm}{{5}{12}}
\@writefile{lol}{\contentsline {lstlisting}{\numberline {5}Команда для генерации LLVM}{12}{}\protected@file@percent }
\abx@aux@cite{0}{llvm-type}
\abx@aux@segm{0}{0}{llvm-type}
\newlabel{output-for-llvm-for-explain-llvm}{{6}{13}}
\@writefile{lol}{\contentsline {lstlisting}{\numberline {6}Результат выполнения команды}{13}{}\protected@file@percent }
\@writefile{toc}{\contentsline {subsection}{\numberline {1.3.2}LLVM парсеры}{13}{}\protected@file@percent }
\@writefile{toc}{\contentsline {subsubsection}{\numberline {1.3.2.1}Написание своего парсера}{13}{}\protected@file@percent }
\@writefile{toc}{\contentsline {subsubsection}{\numberline {1.3.2.2}Ocaml}{14}{}\protected@file@percent }
\@writefile{toc}{\contentsline {subsubsection}{\numberline {1.3.2.3}Java}{14}{}\protected@file@percent }
\@writefile{toc}{\contentsline {subsubsection}{\numberline {1.3.2.4}C++}{14}{}\protected@file@percent }
\@writefile{toc}{\contentsline {section}{\numberline {1.4}Infersharp}{14}{}\protected@file@percent }
\newlabel{command-for-infer-json-explain-infersharp}{{7}{15}}
\@writefile{lol}{\contentsline {lstlisting}{\numberline {7}Команда для использования Infer JSON}{15}{}\protected@file@percent }
\@writefile{toc}{\contentsline {subsection}{\numberline {1.4.1}Tenv}{15}{}\protected@file@percent }
\@writefile{lof}{\contentsline {figure}{\numberline {1}{\ignorespaces Основные составляющие tenv\relax }}{15}{}\protected@file@percent }
\newlabel{infersharp-tenv-description-main}{{1}{15}}
\@writefile{lof}{\contentsline {figure}{\numberline {2}{\ignorespaces Метод tenv\relax }}{16}{}\protected@file@percent }
\newlabel{infersharp-tenv-description-method}{{2}{16}}
\@writefile{toc}{\contentsline {subsection}{\numberline {1.4.2}Cfg}{16}{}\protected@file@percent }
\@writefile{lof}{\contentsline {figure}{\numberline {3}{\ignorespaces Метод tenv\relax }}{17}{}\protected@file@percent }
\newlabel{infersharp-tenv-description-type}{{3}{17}}
\@writefile{lof}{\contentsline {figure}{\numberline {4}{\ignorespaces Метод tenv\relax }}{17}{}\protected@file@percent }
\newlabel{infersharp-cfg-description-state}{{4}{17}}
\@writefile{lof}{\contentsline {figure}{\numberline {5}{\ignorespaces Выражение tenv\relax }}{18}{}\protected@file@percent }
\newlabel{infersharp-cfg-description-expression}{{5}{18}}
\@writefile{toc}{\contentsline {section}{\numberline {1.5}Существующие решения}{18}{}\protected@file@percent }
\@writefile{toc}{\contentsline {section}{Выводы по главе\nobreakspace  1}{18}{}\protected@file@percent }
\@writefile{toc}{\contentsline {chapter}{\numberline {2}Обзор структуры работы и реализация вспомогательных компонентов}{20}{}\protected@file@percent }
\@writefile{lof}{\addvspace {10\p@ }}
\@writefile{lot}{\addvspace {10\p@ }}
\@writefile{toc}{\contentsline {section}{\numberline {2.1}Определение общей структуры работы}{20}{}\protected@file@percent }
\@writefile{lof}{\contentsline {figure}{\numberline {6}{\ignorespaces Путь файла. Шаг 1\relax }}{20}{}\protected@file@percent }
\newlabel{path-of-file-step-1}{{6}{20}}
\@writefile{lof}{\contentsline {figure}{\numberline {7}{\ignorespaces Путь файла. Шаг 2\relax }}{20}{}\protected@file@percent }
\newlabel{path-of-file-step-2}{{7}{20}}
\@writefile{lof}{\contentsline {figure}{\numberline {8}{\ignorespaces Путь файла. Шаг 3\relax }}{21}{}\protected@file@percent }
\newlabel{path-of-file-step-3}{{8}{21}}
\@writefile{lof}{\contentsline {figure}{\numberline {9}{\ignorespaces Путь файла. Шаг 4. Языковая часть\relax }}{21}{}\protected@file@percent }
\newlabel{path-of-file-step-4-language}{{9}{21}}
\@writefile{lof}{\contentsline {figure}{\numberline {10}{\ignorespaces Путь файла. Шаг 4. LLVM часть\relax }}{22}{}\protected@file@percent }
\newlabel{path-of-file-step-4-llvm}{{10}{22}}
\@writefile{lof}{\contentsline {figure}{\numberline {11}{\ignorespaces Структура транслятора\relax }}{22}{}\protected@file@percent }
\newlabel{server-structure}{{11}{22}}
\@writefile{lof}{\contentsline {figure}{\numberline {12}{\ignorespaces Путь файла\relax }}{23}{}\protected@file@percent }
\newlabel{source-file-path}{{12}{23}}
\newlabel{rude-example-of-main-server}{{8}{23}}
\@writefile{lol}{\contentsline {lstlisting}{\numberline {8}Примерный псевдокод сервера}{23}{}\protected@file@percent }
\@writefile{toc}{\contentsline {section}{\numberline {2.2}Сервисное общение}{23}{}\protected@file@percent }
\newlabel{llvm-value-protobuf}{{9}{24}}
\@writefile{lol}{\contentsline {lstlisting}{\numberline {9}llvm::Value в protobuf}{24}{}\protected@file@percent }
\@writefile{toc}{\contentsline {section}{\numberline {2.3}Трансляция исходного кода в LLVM IR}{25}{}\protected@file@percent }
\newlabel{rude-example-of-translation-from-source-to-llvm-without-debug}{{10}{25}}
\@writefile{lol}{\contentsline {lstlisting}{\numberline {10}Два примера команд для трансляции}{25}{}\protected@file@percent }
\@writefile{toc}{\contentsline {section}{\numberline {2.4}Парсер LLVM}{25}{}\protected@file@percent }
\newlabel{vcpkg-json-llvm}{{11}{25}}
\@writefile{lol}{\contentsline {lstlisting}{\numberline {11}Подключение llvm}{25}{}\protected@file@percent }
\newlabel{parse-file-llvm}{{12}{26}}
\@writefile{lol}{\contentsline {lstlisting}{\numberline {12}Парсинг файла llvm}{26}{}\protected@file@percent }
\newlabel{parse-string-llvm}{{13}{26}}
\@writefile{lol}{\contentsline {lstlisting}{\numberline {13}Парсинг строки llvm}{26}{}\protected@file@percent }
\@writefile{toc}{\contentsline {section}{Выводы по главе\nobreakspace  2}{26}{}\protected@file@percent }
\abx@aux@cite{0}{llvm-value-inheritance}
\abx@aux@segm{0}{0}{llvm-value-inheritance}
\@writefile{toc}{\contentsline {chapter}{\numberline {3}Технические подробности транслятора}{27}{}\protected@file@percent }
\@writefile{lof}{\addvspace {10\p@ }}
\@writefile{lot}{\addvspace {10\p@ }}
\@writefile{toc}{\contentsline {section}{\numberline {3.1}Трансляция LLVM IR в LLVM Model}{27}{}\protected@file@percent }
\@writefile{lof}{\contentsline {figure}{\numberline {13}{\ignorespaces Часть структуры наследования Value c официального сайта \blx@tocontentsinit {0}\cite {llvm-value-inheritance}\relax }}{28}{}\protected@file@percent }
\newlabel{llvm-value-inheritance}{{13}{28}}
\@writefile{toc}{\contentsline {section}{\numberline {3.2}Трансляция}{28}{}\protected@file@percent }
\newlabel{llvm-to-protobuf-inheritance}{{14}{29}}
\@writefile{lol}{\contentsline {lstlisting}{\numberline {14}Пример наследования}{29}{}\protected@file@percent }
\newlabel{c-plus-plus-example-user}{{15}{29}}
\@writefile{lol}{\contentsline {lstlisting}{\numberline {15}Пример реализации парсинга User}{29}{}\protected@file@percent }
\newlabel{c-plus-plus-example-argument}{{16}{30}}
\@writefile{lol}{\contentsline {lstlisting}{\numberline {16}Пример реализации парсинга Argument}{30}{}\protected@file@percent }
\newlabel{json-property-example}{{17}{30}}
\@writefile{lol}{\contentsline {lstlisting}{\numberline {17}Пример использования JsonProperty}{30}{}\protected@file@percent }
\@writefile{lof}{\contentsline {figure}{\numberline {14}{\ignorespaces Передача контекста\relax }}{30}{}\protected@file@percent }
\newlabel{kotlin-parsing-context}{{14}{30}}
\@writefile{toc}{\contentsline {subsection}{\numberline {3.2.1}Проблемы несовпадения инструкций}{30}{}\protected@file@percent }
\newlabel{java-cmp-inst}{{18}{31}}
\@writefile{lol}{\contentsline {lstlisting}{\numberline {18}Операция сравнения элементов}{31}{}\protected@file@percent }
\@writefile{toc}{\contentsline {subsection}{\numberline {3.2.2}Проблемы несовпадения типов}{31}{}\protected@file@percent }
\@writefile{toc}{\contentsline {subsection}{\numberline {3.2.3}Проблемы аттрибутов функций}{32}{}\protected@file@percent }
\newlabel{adding-attrubutes-function-example-notnull}{{19}{32}}
\@writefile{lol}{\contentsline {lstlisting}{\numberline {19}Пример функции с nonnull}{32}{}\protected@file@percent }
\newlabel{adding-attrubutes-function-example-replace}{{20}{32}}
\@writefile{lol}{\contentsline {lstlisting}{\numberline {20}Пример замены функции с nonnull}{32}{}\protected@file@percent }
\@writefile{toc}{\contentsline {subsection}{\numberline {3.2.4}Проблема Store и Load}{32}{}\protected@file@percent }
\newlabel{cmp-inst-from-llvm-to-infer}{{21}{33}}
\@writefile{lol}{\contentsline {lstlisting}{\numberline {21}Операция cmpInst}{33}{}\protected@file@percent }
\@writefile{toc}{\contentsline {section}{\numberline {3.3}Infer JSON в результат}{33}{}\protected@file@percent }
\newlabel{run-infer-json-to-result}{{22}{33}}
\@writefile{lol}{\contentsline {lstlisting}{\numberline {22}Запуск Infer}{33}{}\protected@file@percent }
\@writefile{toc}{\contentsline {section}{\numberline {3.4}Примеры}{33}{}\protected@file@percent }
\@writefile{toc}{\contentsline {subsection}{\numberline {3.4.1}Простой Null Pointer}{33}{}\protected@file@percent }
\newlabel{example-null-pointer-c}{{23}{34}}
\@writefile{lol}{\contentsline {lstlisting}{\numberline {23}Программа на C}{34}{}\protected@file@percent }
\newlabel{example-null-pointer-llvm}{{24}{34}}
\@writefile{lol}{\contentsline {lstlisting}{\numberline {24}Часть файла LLVM IR}{34}{}\protected@file@percent }
\newlabel{example-null-pointer-result}{{25}{34}}
\@writefile{lol}{\contentsline {lstlisting}{\numberline {25}Часть результата}{34}{}\protected@file@percent }
\@writefile{toc}{\contentsline {subsection}{\numberline {3.4.2}Структурная функция}{34}{}\protected@file@percent }
\abx@aux@cite{0}{doom-example-github}
\abx@aux@segm{0}{0}{doom-example-github}
\newlabel{example-structure-function-c}{{26}{35}}
\@writefile{lol}{\contentsline {lstlisting}{\numberline {26}Программа на C}{35}{}\protected@file@percent }
\newlabel{example-structure-function-result}{{27}{35}}
\@writefile{lol}{\contentsline {lstlisting}{\numberline {27}Часть результата}{35}{}\protected@file@percent }
\@writefile{toc}{\contentsline {subsection}{\numberline {3.4.3}DOOM}{35}{}\protected@file@percent }
\abx@aux@cite{0}{crypto-example-github}
\abx@aux@segm{0}{0}{crypto-example-github}
\abx@aux@cite{0}{algo-example-github}
\abx@aux@segm{0}{0}{algo-example-github}
\@writefile{lot}{\contentsline {table}{\numberline {1}{\ignorespaces Сравнение результатов\relax }}{36}{}\protected@file@percent }
\newlabel{compare-doom}{{1}{36}}
\@writefile{toc}{\contentsline {subsection}{\numberline {3.4.4}Примеры с реализацией классических алгоритмов и алгоритмов криптографии}{36}{}\protected@file@percent }
\newlabel{check-heap-example}{{28}{37}}
\@writefile{lol}{\contentsline {lstlisting}{\numberline {28}Часть кода, проверяющая граф}{37}{}\protected@file@percent }
\@writefile{toc}{\contentsline {section}{Выводы по главе\nobreakspace  3}{37}{}\protected@file@percent }
\newlabel{chapter:conclusion}{{3.4.4}{38}}
\@writefile{toc}{\contentsline {chapter}{ЗАКЛЮЧЕНИЕ}{38}{}\protected@file@percent }
\@writefile{toc}{\contentsline {chapter}{СПИСОК ИСПОЛЬЗОВАННЫХ ИСТОЧНИКОВ}{39}{}\protected@file@percent }
\@writefile{toc}{\ttl@change@i {\@ne }{chapter}{\appendixPrefix }{}{\contentslabel [\@appendixname ~\thecontentslabel .]{\the \appendixPrefix }}{\hspace *{-\the \appendixPrefix }}{\titlerule *[0.5pc]{.}\contentspage }\relax }
\@writefile{toc}{\ttl@change@v {chapter}{}{}{}\relax }
\@writefile{toc}{\contentsline {chapter}{\numberline {А}Запуск существующих инструментов}{41}{}\protected@file@percent }
\@writefile{lof}{\addvspace {10\p@ }}
\@writefile{lot}{\addvspace {10\p@ }}
\newlabel{appendix:example-usages-cmake}{{А.1}{41}}
\@writefile{lol}{\contentsline {lstlisting}{\numberline {А.1}Генерация Protobuf файлов}{41}{}\protected@file@percent }
\newlabel{appendix:example-usages-gradle}{{А.2}{41}}
\@writefile{lol}{\contentsline {lstlisting}{\numberline {А.2}Подключение Protobuf}{41}{}\protected@file@percent }
\@writefile{toc}{\contentsline {chapter}{\numberline {Б}Парсинг}{43}{}\protected@file@percent }
\@writefile{lof}{\addvspace {10\p@ }}
\@writefile{lot}{\addvspace {10\p@ }}
\newlabel{appendix:c-plus-plus-example-value}{{Б.1}{43}}
\@writefile{lol}{\contentsline {lstlisting}{\numberline {Б.1}Пример реализации парсинга Value}{43}{}\protected@file@percent }
\@writefile{toc}{\contentsline {chapter}{\numberline {В}Примеры выполнения}{44}{}\protected@file@percent }
\@writefile{lof}{\addvspace {10\p@ }}
\@writefile{lot}{\addvspace {10\p@ }}
\newlabel{example-structure-function-llvm}{{В.1}{44}}
\@writefile{lol}{\contentsline {lstlisting}{\numberline {В.1}Часть файла LLVM IR}{44}{}\protected@file@percent }
\ttl@finishall
\abx@aux@read@bbl@mdfivesum{1CE73CA90682BF2AEC0B89D8F1952A49}
\abx@aux@defaultrefcontext{0}{clang}{nyt/global//global/global}
\abx@aux@defaultrefcontext{0}{cppcheck}{nyt/global//global/global}
\abx@aux@defaultrefcontext{0}{doom-example-github}{nyt/global//global/global}
\abx@aux@defaultrefcontext{0}{infer}{nyt/global//global/global}
\abx@aux@defaultrefcontext{0}{infer-getting-started}{nyt/global//global/global}
\abx@aux@defaultrefcontext{0}{infer-github}{nyt/global//global/global}
\abx@aux@defaultrefcontext{0}{infer-sil}{nyt/global//global/global}
\abx@aux@defaultrefcontext{0}{infersharp}{nyt/global//global/global}
\abx@aux@defaultrefcontext{0}{llvm}{nyt/global//global/global}
\abx@aux@defaultrefcontext{0}{microsoft-wikipedia}{nyt/global//global/global}
\abx@aux@defaultrefcontext{0}{ocaml}{nyt/global//global/global}
\abx@aux@defaultrefcontext{0}{risc}{nyt/global//global/global}
\abx@aux@defaultrefcontext{0}{ssa-wikipedia}{nyt/global//global/global}
\abx@aux@defaultrefcontext{0}{ssa-cs-cmu}{nyt/global//global/global}
\abx@aux@defaultrefcontext{0}{llvm-type}{nyt/global//global/global}
\abx@aux@defaultrefcontext{0}{jetbrains-infer-integration}{nyt/global//global/global}
\abx@aux@defaultrefcontext{0}{algo-example-github}{nyt/global//global/global}
\abx@aux@defaultrefcontext{0}{crypto-example-github}{nyt/global//global/global}
\abx@aux@defaultrefcontext{0}{static-analysis-wiki}{nyt/global//global/global}
\abx@aux@defaultrefcontext{0}{llvm-value-inheritance}{nyt/global//global/global}
\abx@aux@defaultrefcontext{0}{ide-infer-integration}{nyt/global//global/global}
\gdef \@abspage@last{47}
